Logging Unapproved Package and Function Use
…
2. Build approved.rds

Pass the named list through build_approved() to build
your tibble. We create a temp directory to save this for
illustration.

build_approved(approved_pkgs)
#> # A tibble: 294 × 2
#>    function_name library      
#>    <chr>         <chr>        
#>  1 mean          package:base 
#>  2 rows_upsert   package:dplyr
#>  3 src_local     package:dplyr
#>  4 db_analyze    package:dplyr
#>  5 n_groups      package:dplyr
#>  6 distinct      package:dplyr
#>  7 summarise_    package:dplyr
#>  8 group_split   package:dplyr
#>  9 group_by_if   package:dplyr
#> 10 sample_n      package:dplyr
#> # ℹ 284 more rows
…
